빠네파스타(1호점) 
 
큰 하드롤 안에 파스타를 넣어 빵과 함께 먹을 수 있는 빠네! 빠네가 생각난다면 빠네파스타로.. 
 
명동/을지로입구 | 양식(파스타전문점) 
 
전화번호 02-777-7966 
 
주소 서울 중구 명동2가 26-3 2층 
 
영업시간 11:00 ~ 23:00 
 
휴무 연중무휴 
 
주차 불가 
 
메뉴 빠네카스텔로13,000원, 살몬알라감베로네13,000원, 페투치네포르마지오14,000원 
 
찾아가는길 명동역8번출구 앞 뚜레쥬르와 훼미리마트 사이 골목길로 들어가서 100m 직진 후 우측 2층 
