아리가또맘마(홍대1호점) 
 
일본식 캐쥬얼 분식 레스토랑 
 
마포/합정/상수 | 일식 
 
전화번호 02-322-1214 
 
주소 서울 마포구 상수동 317-2 
 
영업시간 11:30~22:00(주말 12:00~23:00 라스트오더 21:30) 
 
휴무 명절당일 
 
주차 불가능 
 
메뉴 오사카 철판돈까스 7,000원, 오사카 일본카레 6,000원, 가쯔동 7,000원, 쿠로마유돈꼬츠라멘 7,500원 
 
찾아가는길 상수역 1번 출구 50m 스탠딩커피 오른쪽 골목 내 
