서가앤쿡(신촌점) 
 
좋은 사람들과 함께하는 건강한만찬! 편안한 분위기가 어우러진 젊은이들의 아지트 서가앤쿡 
 
신촌역/이대역 | 양식(이탈리안레스토랑) 
 
전화번호 02-324-5005 
 
주소 서울 서대문구 창천동 57-3 3층 
 
영업시간 11:30~22:30(라스트오더 21:40) 
 
휴무 연중무휴 
 
주차 불가 
 
메뉴 목살스테이크샐러드 19,800원, 새우필라프 19,800원, 베이컨까르보나라 19,800원, 연어샐러드 19,800원 
 
찾아가는길 신촌역 현대유플렉스 백화점 출구로 나와 30m 앞 위치 
